%YAML 1.1
%TAG !u! tag:unity3d.com,2011:
--- !u!1 &2099130731375084119
GameObject:
  m_ObjectHideFlags: 0
  m_CorrespondingSourceObject: {fileID: 0}
  m_PrefabInstance: {fileID: 0}
  m_PrefabAsset: {fileID: 0}
  serializedVersion: 6
  m_Component:
  - component: {fileID: 4272051364029007099}
  - component: {fileID: 6809014916564495903}
  m_Layer: 0
  m_Name: CreatureFlyWeightA
  m_TagString: Untagged
  m_Icon: {fileID: 0}
  m_NavMeshLayer: 0
  m_StaticEditorFlags: 0
  m_IsActive: 1
--- !u!4 &4272051364029007099
Transform:
  m_ObjectHideFlags: 0
  m_CorrespondingSourceObject: {fileID: 0}
  m_PrefabInstance: {fileID: 0}
  m_PrefabAsset: {fileID: 0}
  m_GameObject: {fileID: 2099130731375084119}
  m_LocalRotation: {x: 0, y: 0, z: 0, w: 1}
  m_LocalPosition: {x: -1.786376, y: 0, z: 13.030378}
  m_LocalScale: {x: 1, y: 1, z: 1}
  m_Children: []
  m_Father: {fileID: 0}
  m_RootOrder: 0
  m_LocalEulerAnglesHint: {x: 0, y: 0, z: 0}
--- !u!114 &6809014916564495903
MonoBehaviour:
  m_ObjectHideFlags: 0
  m_CorrespondingSourceObject: {fileID: 0}
  m_PrefabInstance: {fileID: 0}
  m_PrefabAsset: {fileID: 0}
  m_GameObject: {fileID: 2099130731375084119}
  m_Enabled: 1
  m_EditorHideFlags: 0
  m_Script: {fileID: 11500000, guid: 883454d3f7d48ff4c9ba52e783c7b7ec, type: 3}
  m_Name: 
  m_EditorClassIdentifier: 
  speed: 3
  color: {r: 0.9811321, g: 0.06016379, b: 0.06016379, a: 0}
  eatenSurvivorChance: 0.7
  eatenCloneChance: 0.6
  starvedSurvivorChance: 0.3
  starvedCloneChance: 0.1
